{
  "openapi": "3.0.3",
  "info": {
    "title": "API GAME Hau Chapt 7",
    "description": "API collection Chapt 7",
    "version": "1.0"
  },
  "servers": [
    {
      "url": "http://localhost:3001"
    }
  ],
  "paths": {
    "/user/regis": {
      "post": {
        "tags": [
          "user"
        ],
        "summary": "API untuk registrasi user",
        "description": "API registrasi user baru",
        "requestBody": {
          "content": {
            "application/json": {
              "schema": {
                "type": "object",
                "properties": {
                  "username": {
                    "type": "string",
                    "example": "contohUser"
                  },
                  "email": {
                    "type": "string",
                    "example": "contoh@binar.com"
                  },
                  "password": {
                    "type": "string",
                    "example": "passwordmu"
                  }
                }
              }
            }
          }
        },
        "responses": {
          "200": {
            "description": "Registrasi berhasil"
          },
          "400": {
            "description": "Username atau email sudah terdaftar"
          }
        }
      }
    },
    "/user/login": {
      "post": {
        "tags": [
          "user"
        ],
        "summary": "API untuk login user",
        "description": "API login user baru",
        "requestBody": {
          "content": {
            "application/json": {
              "schema": {
                "type": "object",
                "properties": {
                  "username": {
                    "type": "string",
                    "example": "contohUser"
                  },
                  "password": {
                    "type": "string",
                    "example": "passwordmu"
                  }
                }
              }
            }
          }
        },
        "responses": {
          "200": {
            "description": "Login Berhasil",
            "content": {
              "application/json": {
                "schema": {
                  "type": "object",
                  "properties": {
                    "accessToken": {
                      "type": "string",
                      "example": "ini adalah tokenmu"
                    }
                  }
                }
              }
            }
          }
        }
      }
    },
    "/user/singleUser/{userId}": {
      "get": {
        "tags": [
          "user"
        ],
        "summary": "API Get single User",
        "parameters": [
          {
            "name": "userId",
            "in": "path",
            "required": true,
            "schema": {
              "type": "string"
            }
          }
        ],
        "security": [
          {
            "bearerAuth": []
          }
        ],
        "responses": {
          "200": {
            "description": "Success find user"
          }
        }
      }
    },
    "/user": {
      "get": {
        "tags": [
          "user"
        ],
        "summary": "API untuk mendapatkan semua user",
        "security": [
          {
            "bearerAuth": []
          }
        ],
        "responses": {
          "200": {
            "description": "Success get All user"
          }
        }
      }
    },
    "/user/updatebio/{userId}": {
      "put": {
        "tags": [
          "user"
        ],
        "summary": "API untuk update user biodata",
        "description": "Update user biodata",
        "parameters": [
          {
            "in": "path",
            "name": "userId",
            "schema": {
              "type": "string"
            },
            "required": true,
            "description": "Masukan id di paramater untuk mengupdate biodata user"
          }
        ],
        "security": [
          {
            "bearerAuth": []
          }
        ],
        "requestBody": {
          "content": {
            "application/json": {
              "schema": {
                "type": "object",
                "properties": {
                  "fullname": {
                    "type": "string",
                    "example": "user update"
                  },
                  "address": {
                    "type": "string",
                    "example": "overthere"
                  },
                  "phoneNumber": {
                    "type": "string",
                    "example": "08181818181"
                  }
                }
              }
            }
          }
        },
        "responses": {
          "200": {
            "description": "Biodata sudah di buat / Biodata sudah di update"
          }
        }
      }
    },
    "/user/createRoom": {
      "post": {
        "tags": [
          "user game"
        ],
        "summary": "API untuk membuat room permainan",
        "description": "Membuat room permainan antara 2 player",
        "requestBody": {
          "content": {
            "application/json": {
              "schema": {
                "type": "object",
                "properties": {
                  "namaRoom": {
                    "type": "string",
                    "example": "ini room satu"
                  },
                  "playerOneChoice": {
                    "type": "string",
                    "example": "batu"
                  }
                }
              }
            }
          }
        },
        "security": [
          {
            "bearerAuth": []
          }
        ],
        "responses": {
          "200": {
            "description": "room berhasil dibuat"
          }
        }
      }
    },
    "/user/allRooms": {
      "get": {
        "tags": [
          "user game"
        ],
        "summary": "API untuk mendapatkan semua room",
        "description": "Menampilan semua room",
        "security": [
          {
            "bearerAuth": []
          }
        ],
        "responses": {
          "200": {
            "description": "Berhasil mendapatkan semua room"
          }
        }
      }
    },
    "/user/singleRoom/{id}": {
      "get": {
        "tags": [
          "user game"
        ],
        "summary": "API untuk mendapatkan informasi salah satu room",
        "description": "Melihat informasi room berdasarkan id room tersebut",
        "parameters": [
          {
            "in": "path",
            "name": "id",
            "schema": {
              "type": "string"
            },
            "required": true,
            "description": "ID di parameter untuk menentukan id room"
          }
        ],
        "security": [
          {
            "bearerAuth": []
          }
        ],
        "responses": {
          "200": {
            "description": "Menerima room single detail"
          }
        }
      }
    },
    "/user/joinRoom/{id}": {
      "put": {
        "tags": [
          "user game"
        ],
        "summary": "API agar penantang dapat join ke room yang sudah dibuat",
        "description": "API untuk join room",
        "parameters": [
          {
            "in": "path",
            "name": "id",
            "schema": {
              "type": "string"
            },
            "required": true,
            "description": "Masukan ID room untuk join ke room tersebut"
          }
        ],
        "security": [
          {
            "bearerAuth": []
          }
        ],
        "requestBody": {
          "content": {
            "application/json": {
              "schema": {
                "type": "object",
                "properties": {
                  "playerTwoChoice": {
                    "type": "string",
                    "example": "kertas"
                  }
                }
              }
            }
          }
        },
        "responses": {
          "200": {
            "description": "room berhasil dibuat"
          }
        }
      }
    },
    "/user/pvphistory": {
      "get": {
        "tags": [
          "user game"
        ],
        "summary": "API untuk menapilkan rekam permainan user",
        "description": "Menampilkan history permainan user yang login",
        "security": [
          {
            "bearerAuth": []
          }
        ],
        "responses": {
          "200": {
            "description": "user history"
          }
        }
      }
    },
    "/user/vsCom": {
      "post": {
        "tags": [
          "user game"
        ],
        "summary": "API untuk player melawan computer",
        "description": "API yang berguna untuk membuat room baru agar anda dapat melawan computer",
        "requestBody": {
          "content": {
            "application/json": {
              "schema": {
                "type": "object",
                "properties": {
                  "player1_choice": {
                    "type": "string",
                    "example": "gunting"
                  }
                }
              }
            }
          }
        },
        "security": [
          {
            "bearerAuth": []
          }
        ],
        "responses": {
          "200": {
            "description": "Berhasil membuat room melawan computer"
          }
        }
      }
    }
  },
  "components": {
    "securitySchemes": {
      "bearerAuth": {
        "type": "http",
        "scheme": "bearer",
        "bearerFormat": "JWT"
      }
    }
  }
}